…
#> ✔ 08:30:00 | added fixed drive variables
#> ✔ 08:30:00 | added series variables
#> • 08:30:00 | Cleaning up play-by-play...
#> ✔ 08:30:01 | Cleaning completed
#> ✔ 08:30:01 | added qb_epa
#> • 08:30:01 | Computing xyac...
#> ✔ 08:30:02 | added xyac variables
#> • 08:30:02 | Computing xpass...
#> ✔ 08:30:03 | added xpass and pass_oe
#> • 08:30:03 | Decode player ids...
#> ✔ 08:30:04 | Decoding of player ids completed
#> ── DONE ────────────────────────────────────────────────────────────────────────
#> ── nflverse play by play ───────────────────────────────────────────────────────
#> ℹ Data updated: 2025-06-05 08:30:04 UTC
#> # A tibble: 349 × 372
#>    play_id game_id     old_game_id home_team away_team season_type  week posteam
#>      <dbl> <chr>       <chr>       <chr>     <chr>     <chr>       <int> <chr>  
#>  1       1 2018_21_NE… 2019020300  LA        NE        POST           21 NA     
#>  2      38 2018_21_NE… 2019020300  LA        NE        POST           21 NE     
#>  3      67 2018_21_NE… 2019020300  LA        NE        POST           21 NE     
#>  4      89 2018_21_NE… 2019020300  LA        NE        POST           21 NE     
#>  5     111 2018_21_NE… 2019020300  LA        NE        POST           21 NE     
#>  6     133 2018_21_NE… 2019020300  LA        NE        POST           21 NE     
#>  7     155 2018_21_NE… 2019020300  LA        NE        POST           21 NE     
#>  8     182 2018_21_NE… 2019020300  LA        NE        POST           21 LA     
#>  9     204 2018_21_NE… 2019020300  LA        NE        POST           21 LA     
#> 10     226 2018_21_NE… 2019020300  LA        NE        POST           21 LA     
#> # ℹ 339 more rows
#> # ℹ 364 more variables: posteam_type <chr>, defteam <chr>, side_of_field <chr>,
#> #   yardline_100 <dbl>, game_date <chr>, quarter_seconds_remaining <dbl>,
#> #   half_seconds_remaining <dbl>, game_seconds_remaining <dbl>,
#> #   game_half <chr>, quarter_end <dbl>, drive <dbl>, sp <dbl>, qtr <dbl>,
#> #   down <dbl>, goal_to_go <int>, time <chr>, yrdln <chr>, ydstogo <dbl>,
#> #   ydsnet <dbl>, desc <chr>, play_type <chr>, yards_gained <dbl>, …
…
#> ✔ 08:30:08 | added fixed drive variables
#> ✔ 08:30:09 | added series variables
#> • 08:30:09 | Cleaning up play-by-play...
#> ✔ 08:30:09 | Cleaning completed
#> ✔ 08:30:09 | added qb_epa
#> • 08:30:09 | Computing xyac...
#> ✔ 08:30:10 | added xyac variables
#> • 08:30:10 | Computing xpass...
#> ✔ 08:30:10 | added xpass and pass_oe
#> • 08:30:10 | Decode player ids...
#> ✔ 08:30:10 | Decoding of player ids completed
#> ── DONE ────────────────────────────────────────────────────────────────────────
#> ── nflverse play by play ───────────────────────────────────────────────────────
#> ℹ Data updated: 2025-06-05 08:30:10 UTC
#> # A tibble: 539 × 372
#>    play_id game_id     old_game_id home_team away_team season_type  week posteam
#>      <dbl> <chr>       <chr>       <chr>     <chr>     <chr>       <int> <chr>  
#>  1       1 2020_20_BU… 2021012401  KC        BUF       POST           20 NA     
#>  2      42 2020_20_BU… 2021012401  KC        BUF       POST           20 BUF    
#>  3      57 2020_20_BU… 2021012401  KC        BUF       POST           20 BUF    
#>  4      78 2020_20_BU… 2021012401  KC        BUF       POST           20 BUF    
#>  5     102 2020_20_BU… 2021012401  KC        BUF       POST           20 BUF    
#>  6     123 2020_20_BU… 2021012401  KC        BUF       POST           20 BUF    
#>  7     145 2020_20_BU… 2021012401  KC        BUF       POST           20 BUF    
#>  8     174 2020_20_BU… 2021012401  KC        BUF       POST           20 BUF    
#>  9     207 2020_20_BU… 2021012401  KC        BUF       POST           20 BUF    
#> 10     236 2020_20_BU… 2021012401  KC        BUF       POST           20 BUF    
#> # ℹ 529 more rows
#> # ℹ 364 more variables: posteam_type <chr>, defteam <chr>, side_of_field <chr>,
#> #   yardline_100 <dbl>, game_date <chr>, quarter_seconds_remaining <dbl>,
#> #   half_seconds_remaining <dbl>, game_seconds_remaining <dbl>,
#> #   game_half <chr>, quarter_end <dbl>, drive <dbl>, sp <dbl>, qtr <dbl>,
#> #   down <dbl>, goal_to_go <int>, time <chr>, yrdln <chr>, ydstogo <dbl>,
#> #   ydsnet <dbl>, desc <chr>, play_type <chr>, yards_gained <dbl>, …
…
